module gitlab.com/knopkalab/go/http

go 1.17

require (
	github.com/andybalholm/brotli v1.0.4
	github.com/json-iterator/go v1.1.12
	github.com/mssola/user_agent v0.5.3
	github.com/nfnt/resize v0.0.0-20180221191011-83c6a9932646 // indirect
	github.com/stretchr/testify v1.7.0
	gitlab.com/knopkalab/go/errors v1.5.0
	gitlab.com/knopkalab/go/utils v1.0.0
	gitlab.com/knopkalab/tracer v1.19.2
	golang.org/x/image v0.0.0-20211028202545-6944b10bf410 // indirect
)

require (
	github.com/davecgh/go-spew v1.1.1 // indirect
	github.com/go-stack/stack v1.8.0 // indirect
	github.com/golang/snappy v0.0.4 // indirect
	github.com/klauspost/compress v1.14.1 // indirect
	github.com/mattn/go-colorable v0.1.12 // indirect
	github.com/mattn/go-isatty v0.0.14 // indirect
	github.com/modern-go/concurrent v0.0.0-20180306012644-bacd9c7ef1dd // indirect
	github.com/modern-go/reflect2 v1.0.2 // indirect
	github.com/natefinch/lumberjack v2.0.0+incompatible // indirect
	github.com/pkg/errors v0.9.1 // indirect
	github.com/pmezard/go-difflib v1.0.0 // indirect
	github.com/rs/zerolog v1.26.1 // indirect
	github.com/xdg-go/pbkdf2 v1.0.0 // indirect
	github.com/xdg-go/scram v1.0.2 // indirect
	github.com/xdg-go/stringprep v1.0.2 // indirect
	github.com/youmark/pkcs8 v0.0.0-20181117223130-1be2e3e5546d // indirect
	go.mongodb.org/mongo-driver v1.8.3 // indirect
	golang.org/x/crypto v0.0.0-20220131195533-30dcbda58838 // indirect
	golang.org/x/sync v0.0.0-20210220032951-036812b2e83c // indirect
	golang.org/x/sys v0.0.0-20220204135822-1c1b9b1eba6a // indirect
	golang.org/x/text v0.3.7 // indirect
	gopkg.in/yaml.v3 v3.0.0-20210107192922-496545a6307b // indirect
)
